\relax 
\providecommand\hyper@newdestlabel[2]{}
\catcode `"\active 
\providecommand\HyperFirstAtBeginDocument{\AtBeginDocument}
\HyperFirstAtBeginDocument{\ifx\hyper@anchor\@undefined
\global\let\oldcontentsline\contentsline
\gdef\contentsline#1#2#3#4{\oldcontentsline{#1}{#2}{#3}}
\global\let\oldnewlabel\newlabel
\gdef\newlabel#1#2{\newlabelxx{#1}#2}
\gdef\newlabelxx#1#2#3#4#5#6{\oldnewlabel{#1}{{#2}{#3}}}
\AtEndDocument{\ifx\hyper@anchor\@undefined
\let\contentsline\oldcontentsline
\let\newlabel\oldnewlabel
\fi}
\fi}
\global\let\hyper@last\relax 
\gdef\HyperFirstAtBeginDocument#1{#1}
\providecommand\HyField@AuxAddToFields[1]{}
\providecommand\HyField@AuxAddToCoFields[2]{}
\babel@aux{polish}{}
\@writefile{toc}{\contentsline {chapter}{\numberline {1}Wst\IeC {\k e}p}{4}{chapter.1}}
\@writefile{lof}{\addvspace {10\p@ }}
\@writefile{lot}{\addvspace {10\p@ }}
\@writefile{toc}{\contentsline {chapter}{\numberline {2}Historia wspomagania u\IeC {\.z}ycia komputera dla os\IeC {\'o}b niepe\IeC {\l }nosprawnych }{5}{chapter.2}}
\@writefile{lof}{\addvspace {10\p@ }}
\@writefile{lot}{\addvspace {10\p@ }}
\citation{mems_encyklopedia}
\citation{mems_encyklopedia}
\citation{mems_introduction_and_fundamentals}
\citation{czujnik_definicja}
\@writefile{toc}{\contentsline {chapter}{\numberline {3}Opis teoretyczny elektronicznych czujnik\IeC {\'o}w inercyjnych}{7}{chapter.3}}
\@writefile{lof}{\addvspace {10\p@ }}
\@writefile{lot}{\addvspace {10\p@ }}
\@writefile{toc}{\contentsline {section}{\numberline {3.1}MEMS - wprowadzenie}{7}{section.3.1}}
\@writefile{toc}{\contentsline {section}{\numberline {3.2}Spos\IeC {\'o}b dzia\IeC {\l }ania sensor\IeC {\'o}w MEMS}{8}{section.3.2}}
\@writefile{toc}{\contentsline {subsection}{\numberline {3.2.1}Czujniki po\IeC {\l }o\IeC {\.z}enia k\IeC {\k a}towego}{8}{subsection.3.2.1}}
\@writefile{toc}{\contentsline {subsection}{\numberline {3.2.2}Czujniki przyspieszenia}{8}{subsection.3.2.2}}
