\babel@toc {polish}{}
\contentsline {chapter}{\numberline {1}Wst\IeC {\k e}p}{4}{chapter.1}
\contentsline {chapter}{\numberline {2}Historia wspomagania u\IeC {\.z}ycia komputera dla os\IeC {\'o}b niepe\IeC {\l }nosprawnych }{5}{chapter.2}
\contentsline {chapter}{\numberline {3}Opis teoretyczny elektronicznych czujnik\IeC {\'o}w inercyjnych}{7}{chapter.3}
\contentsline {section}{\numberline {3.1}MEMS - wprowadzenie}{7}{section.3.1}
\contentsline {section}{\numberline {3.2}Spos\IeC {\'o}b dzia\IeC {\l }ania sensor\IeC {\'o}w MEMS}{8}{section.3.2}
\contentsline {subsection}{\numberline {3.2.1}Czujniki po\IeC {\l }o\IeC {\.z}enia k\IeC {\k a}towego}{8}{subsection.3.2.1}
\contentsline {subsection}{\numberline {3.2.2}Czujniki przyspieszenia}{8}{subsection.3.2.2}
