\BOOKMARK [0][-]{chapter.1}{Wstep}{}% 1
\BOOKMARK [0][-]{chapter.2}{Historia wspomagania uzycia komputera dla os\363b niepe\233nosprawnych }{}% 2
\BOOKMARK [0][-]{chapter.3}{Opis teoretyczny elektronicznych czujnik\363w inercyjnych}{}% 3
\BOOKMARK [1][-]{section.3.1}{MEMS - wprowadzenie}{chapter.3}% 4
\BOOKMARK [1][-]{section.3.2}{Spos\363b dzia\233ania sensor\363w MEMS}{chapter.3}% 5
\BOOKMARK [2][-]{subsection.3.2.1}{Czujniki po\233ozenia katowego}{section.3.2}% 6
\BOOKMARK [2][-]{subsection.3.2.2}{Czujniki przyspieszenia}{section.3.2}% 7
